Starting Nmap 7.80 ( https://nmap.org ) at 2022-03-21 12:18 PDT
Nmap scan report for OpenWrt.lan (192.168.1.1)
Host is up (0.00028s latency).
MAC Address: C0:56:27:62:97:30 (Belkin International)
Nmap scan report for 192.168.1.2
Host is up (0.00017s latency).
MAC Address: 9E:2D:C4:E3:4C:51 (Unknown)
Nmap scan report for 192.168.1.7
Host is up (0.00015s latency).
MAC Address: 4C:ED:FB:75:04:25 (Asustek Computer)
Nmap scan report for 192.168.1.8
Host is up (0.00016s latency).
MAC Address: 4C:ED:FB:72:C7:4B (Asustek Computer)
Nmap scan report for 192.168.1.12
Host is up (0.00018s latency).
MAC Address: 4C:ED:FB:72:C8:0B (Asustek Computer)
Nmap scan report for 192.168.1.17
Host is up (0.00018s latency).
MAC Address: 2C:FD:A1:BB:F3:71 (Asustek Computer)
Nmap scan report for 192.168.1.19
Host is up (0.00018s latency).
MAC Address: 4C:ED:FB:72:C7:46 (Asustek Computer)
Nmap scan report for 192.168.1.25
Host is up (0.00028s latency).
MAC Address: 9A:EB:28:E8:FB:B3 (Unknown)
Nmap scan report for 22.lan (192.168.1.52)
Host is up (0.00056s latency).
MAC Address: EC:71:DB:7D:12:78 (Shenzhen Baichuan Digital Technology)
Nmap scan report for s13.lan (192.168.1.53)
Host is up (0.00019s latency).
MAC Address: 0E:A9:38:70:DA:23 (Unknown)
Nmap scan report for xiao.lan (192.168.1.54)
Host is up (0.00020s latency).
MAC Address: 2C:FD:A1:BB:F3:70 (Asustek Computer)
Nmap scan report for cat.lan (192.168.1.55)
Host is up (0.00019s latency).
MAC Address: 4C:ED:FB:72:C7:4B (Asustek Computer)
Nmap scan report for Cian.lan (192.168.1.56)
Host is up (0.00023s latency).
MAC Address: 2C:FD:A1:BB:F3:71 (Asustek Computer)
Nmap scan report for 192.168.1.57
Host is up (0.00067s latency).
MAC Address: EC:71:DB:38:EC:B6 (Shenzhen Baichuan Digital Technology)
Nmap scan report for Sheen.lan (192.168.1.60)
Host is up (0.00017s latency).
MAC Address: 4C:ED:FB:72:C7:AF (Asustek Computer)
Nmap scan report for 192.168.1.62
Host is up (0.00062s latency).
MAC Address: EC:71:DB:83:07:6A (Shenzhen Baichuan Digital Technology)
Nmap scan report for 192.168.1.63
Host is up (0.00067s latency).
MAC Address: EC:71:DB:55:F7:B4 (Shenzhen Baichuan Digital Technology)
Nmap scan report for zavala.lan (192.168.1.64)
Host is up (0.00100s latency).
MAC Address: 2C:FD:A1:BB:F7:92 (Asustek Computer)
Nmap scan report for 192.168.1.67
Host is up (0.00076s latency).
MAC Address: EC:71:DB:03:A2:1B (Shenzhen Baichuan Digital Technology)
Nmap scan report for Camera1.lan (192.168.1.68)
Host is up (0.00074s latency).
MAC Address: EC:71:DB:98:F1:5E (Shenzhen Baichuan Digital Technology)
Nmap scan report for 192.168.1.3
Host is up.
Nmap done: 256 IP addresses (21 hosts up) scanned in 1.07 seconds
